<?xml version="1.0" encoding="utf-8"?>
<!-- Generator: Adobe Illustrator 19.2.1, SVG Export Plug-In . SVG Version: 6.00 Build 0)  -->
<!DOCTYPE svg PUBLIC "-//W3C//DTD SVG 1.1//EN" "http://www.w3.org/Graphics/SVG/1.1/DTD/svg11.dtd">
<svg version="1.1" id="Layer_1" xmlns="http://www.w3.org/2000/svg" xmlns:xlink="http://www.w3.org/1999/xlink" x="0px" y="0px"
	 viewBox="0 0 65 65" style="enable-background:new 0 0 65 65;" xml:space="preserve">
<style type="text/css">
	.st0{fill:#56758D;}
</style>
<g>
	<g>
		<g>
			<path class="st0" d="M61.8,5.9h-6.6v7.2c0,3.2-2.6,5.9-5.9,5.9s-5.9-2.6-5.9-5.9V5.9H21.9v7.2c0,3.2-2.6,5.9-5.9,5.9
				c-3.2,0-5.9-2.6-5.9-5.9V5.9H3.2C1.5,5.9,0.1,7.3,0.1,9v52.3c0,1.7,1.4,3.1,3.1,3.1h58.6c1.7,0,3.1-1.4,3.1-3.1V9
				C64.9,7.3,63.5,5.9,61.8,5.9z M62,61.3c0,0.1-0.1,0.2-0.2,0.2H3.2c-0.1,0-0.2-0.1-0.2-0.2v-38H62V61.3z"/>
		</g>
		<path class="st0" d="M49.4,15.9h-0.3c-1.6,0-2.8-1.3-2.8-2.8V3.4c0-1.6,1.3-2.8,2.8-2.8h0.3c1.6,0,2.8,1.3,2.8,2.8v9.7
			C52.2,14.7,51,15.9,49.4,15.9z"/>
		<path class="st0" d="M16.2,15.9h-0.3c-1.6,0-2.8-1.3-2.8-2.8V3.4c0-1.6,1.3-2.8,2.8-2.8h0.3c1.6,0,2.8,1.3,2.8,2.8v9.7
			C19,14.7,17.7,15.9,16.2,15.9z"/>
	</g>
	<g>
		<path class="st0" d="M52.2,32.4h-3.6c-1.4,0-2.6,1.2-2.6,2.6v3.6c0,1.4,1.2,2.6,2.6,2.6h3.6c1.4,0,2.6-1.2,2.6-2.6V35
			C54.8,33.5,53.6,32.4,52.2,32.4z"/>
		<path class="st0" d="M52.2,44.3h-3.6c-1.4,0-2.6,1.2-2.6,2.6v3.6c0,1.4,1.2,2.6,2.6,2.6h3.6c1.4,0,2.6-1.2,2.6-2.6v-3.6
			C54.8,45.4,53.6,44.3,52.2,44.3z"/>
		<path class="st0" d="M40.3,32.4h-3.6c-1.4,0-2.6,1.2-2.6,2.6v3.6c0,1.4,1.2,2.6,2.6,2.6h3.6c1.4,0,2.6-1.2,2.6-2.6V35
			C42.9,33.5,41.7,32.4,40.3,32.4z"/>
		<path class="st0" d="M40.3,44.3h-3.6c-1.4,0-2.6,1.2-2.6,2.6v3.6c0,1.4,1.2,2.6,2.6,2.6h3.6c1.4,0,2.6-1.2,2.6-2.6v-3.6
			C42.9,45.4,41.7,44.3,40.3,44.3z"/>
		<path class="st0" d="M28.3,32.4h-3.6c-1.4,0-2.6,1.2-2.6,2.6v3.6c0,1.4,1.2,2.6,2.6,2.6h3.6c1.4,0,2.6-1.2,2.6-2.6V35
			C31,33.5,29.8,32.4,28.3,32.4z"/>
		<path class="st0" d="M28.3,44.3h-3.6c-1.4,0-2.6,1.2-2.6,2.6v3.6c0,1.4,1.2,2.6,2.6,2.6h3.6c1.4,0,2.6-1.2,2.6-2.6v-3.6
			C31,45.4,29.8,44.3,28.3,44.3z"/>
		<path class="st0" d="M16.4,44.3h-3.6c-1.4,0-2.6,1.2-2.6,2.6v3.6c0,1.4,1.2,2.6,2.6,2.6h3.6c1.4,0,2.6-1.2,2.6-2.6v-3.6
			C19,45.4,17.9,44.3,16.4,44.3z"/>
	</g>
</g>
</svg>
